{
  "images" : [
    {
      "filename" : "2016-MaineCoon_Kitten_Play_Brand_PuppyKitten-000002_2.0_jpeg_300.jpg",
      "idiom" : "universal",
      "scale" : "1x"
    },
    {
      "idiom" : "universal",
      "scale" : "2x"
    },
    {
      "idiom" : "universal",
      "scale" : "3x"
    }
  ],
  "info" : {
    "author" : "xcode",
    "version" : 1
  }
}
